%YAML 1.1
%TAG !u! tag:unity3d.com,2011:
--- !u!1 &1912993645069568
GameObject:
  m_ObjectHideFlags: 0
  m_CorrespondingSourceObject: {fileID: 0}
  m_PrefabInstance: {fileID: 0}
  m_PrefabAsset: {fileID: 0}
  serializedVersion: 6
  m_Component:
  - component: {fileID: 4932942191964698}
  - component: {fileID: 114720602830752226}
  m_Layer: 0
  m_Name: GlobalBlackboard
  m_TagString: Untagged
  m_Icon: {fileID: 0}
  m_NavMeshLayer: 0
  m_StaticEditorFlags: 0
  m_IsActive: 1
--- !u!4 &4932942191964698
Transform:
  m_ObjectHideFlags: 0
  m_CorrespondingSourceObject: {fileID: 0}
  m_PrefabInstance: {fileID: 0}
  m_PrefabAsset: {fileID: 0}
  m_GameObject: {fileID: 1912993645069568}
  m_LocalRotation: {x: 0, y: 0, z: 0, w: 1}
  m_LocalPosition: {x: 0, y: 0, z: 0}
  m_LocalScale: {x: 1, y: 1, z: 1}
  m_Children: []
  m_Father: {fileID: 0}
  m_RootOrder: 0
  m_LocalEulerAnglesHint: {x: 0, y: 0, z: 0}
--- !u!114 &114720602830752226
MonoBehaviour:
  m_ObjectHideFlags: 0
  m_CorrespondingSourceObject: {fileID: 0}
  m_PrefabInstance: {fileID: 0}
  m_PrefabAsset: {fileID: 0}
  m_GameObject: {fileID: 1912993645069568}
  m_Enabled: 1
  m_EditorHideFlags: 0
  m_Script: {fileID: 11500000, guid: 0fa37a1e1df174dde90d43651a196f06, type: 3}
  m_Name: 
  m_EditorClassIdentifier: 
  m_FloatVars: []
  m_IntVars: []
  m_BoolVars: []
  m_StringVars: []
  m_Vector3Vars: []
  m_RectVars: []
  m_ColorVars: []
  m_QuaternionVars: []
  m_GameObjectVars: []
  m_TextureVars: []
  m_MaterialVars: []
  m_ObjectVars: []
  m_DynamicLists: []
  m_FsmEvents: []
  m_ConcreteFsmEvents:
  - m_ID: -1
    m_Name: APPLICATION_FOCUS
    m_Blackboard: {fileID: 114720602830752226}
    m_IsConstant: 0
    m_IsSystem: 1
  - m_ID: -2
    m_Name: APPLICATION_PAUSE
    m_Blackboard: {fileID: 114720602830752226}
    m_IsConstant: 0
    m_IsSystem: 1
  - m_ID: -3
    m_Name: APPLICATION_QUIT
    m_Blackboard: {fileID: 114720602830752226}
    m_IsConstant: 0
    m_IsSystem: 1
  - m_ID: -4
    m_Name: BECAME_INVISIBLE
    m_Blackboard: {fileID: 114720602830752226}
    m_IsConstant: 0
    m_IsSystem: 1
  - m_ID: -5
    m_Name: BECAME_VISIBLE
    m_Blackboard: {fileID: 114720602830752226}
    m_IsConstant: 0
    m_IsSystem: 1
  - m_ID: -6
    m_Name: COLLISION_ENTER
    m_Blackboard: {fileID: 114720602830752226}
    m_IsConstant: 0
    m_IsSystem: 1
  - m_ID: -7
    m_Name: COLLISION_ENTER_2D
    m_Blackboard: {fileID: 114720602830752226}
    m_IsConstant: 0
    m_IsSystem: 1
  - m_ID: -8
    m_Name: COLLISION_EXIT
    m_Blackboard: {fileID: 114720602830752226}
    m_IsConstant: 0
    m_IsSystem: 1
  - m_ID: -9
    m_Name: COLLISION_EXIT_2D
    m_Blackboard: {fileID: 114720602830752226}
    m_IsConstant: 0
    m_IsSystem: 1
  - m_ID: -10
    m_Name: FINISHED
    m_Blackboard: {fileID: 114720602830752226}
    m_IsConstant: 0
    m_IsSystem: 1
  - m_ID: -11
    m_Name: JOINT_BREAK
    m_Blackboard: {fileID: 114720602830752226}
    m_IsConstant: 0
    m_IsSystem: 1
  - m_ID: -12
    m_Name: MOUSE_ENTER
    m_Blackboard: {fileID: 114720602830752226}
    m_IsConstant: 0
    m_IsSystem: 1
  - m_ID: -13
    m_Name: MOUSE_EXIT
    m_Blackboard: {fileID: 114720602830752226}
    m_IsConstant: 0
    m_IsSystem: 1
  - m_ID: -14
    m_Name: MOUSE_DOWN
    m_Blackboard: {fileID: 114720602830752226}
    m_IsConstant: 0
    m_IsSystem: 1
  - m_ID: -15
    m_Name: MOUSE_UP
    m_Blackboard: {fileID: 114720602830752226}
    m_IsConstant: 0
    m_IsSystem: 1
  - m_ID: -16
    m_Name: MOUSE_UP_BUTTON
    m_Blackboard: {fileID: 114720602830752226}
    m_IsConstant: 0
    m_IsSystem: 1
  - m_ID: -17
    m_Name: TRIGGER_ENTER
    m_Blackboard: {fileID: 114720602830752226}
    m_IsConstant: 0
    m_IsSystem: 1
  - m_ID: -18
    m_Name: TRIGGER_ENTER_2D
    m_Blackboard: {fileID: 114720602830752226}
    m_IsConstant: 0
    m_IsSystem: 1
  - m_ID: -19
    m_Name: TRIGGER_EXIT
    m_Blackboard: {fileID: 114720602830752226}
    m_IsConstant: 0
    m_IsSystem: 1
  - m_ID: -20
    m_Name: TRIGGER_EXIT_2D
    m_Blackboard: {fileID: 114720602830752226}
    m_IsConstant: 0
    m_IsSystem: 1
  m_Namespace: BehaviourMachine
  m_GUICallback: {fileID: 0}
